%YAML 1.1
%TAG !u! tag:unity3d.com,2011:
--- !u!21 &2100000
Material:
  serializedVersion: 6
  m_ObjectHideFlags: 0
  m_PrefabParentObject: {fileID: 0}
  m_PrefabInternal: {fileID: 0}
  m_Name: Player
  m_Shader: {fileID: 2, guid: 0000000000000000f000000000000000, type: 0}
  m_ShaderKeywords: COLR_1_2 _GLOSSYREFLECTIONS_OFF _SMOOTHNESS_TEXTURE_ALBEDO_CHANNEL_A
    _SPECULARHIGHLIGHTS_OFF
  m_LightmapFlags: 4
  m_EnableInstancingVariants: 1
  m_DoubleSidedGI: 0
  m_CustomRenderQueue: -1
  stringTagMap: {}
  disabledShaderPasses: []
  m_SavedProperties:
    serializedVersion: 3
    m_TexEnvs:
    - _BumpMap:
        m_Texture: {fileID: 0}
        m_Scale: {x: 1, y: 1}
        m_Offset: {x: 0, y: 0}
    - _DetailAlbedoMap:
        m_Texture: {fileID: 0}
        m_Scale: {x: 1, y: 1}
        m_Offset: {x: 0, y: 0}
    - _DetailMask:
        m_Texture: {fileID: 0}
        m_Scale: {x: 1, y: 1}
        m_Offset: {x: 0, y: 0}
    - _DetailNormalMap:
        m_Texture: {fileID: 0}
        m_Scale: {x: 1, y: 1}
        m_Offset: {x: 0, y: 0}
    - _EmissionMap:
        m_Texture: {fileID: 0}
        m_Scale: {x: 1, y: 1}
        m_Offset: {x: 0, y: 0}
    - _MainTex:
        m_Texture: {fileID: 2800000, guid: 5c47a20f6f1b84309b0e19acb0bcf76f, type: 3}
        m_Scale: {x: 1, y: 1}
        m_Offset: {x: 0, y: 0}
    - _MetallicGlossMap:
        m_Texture: {fileID: 0}
        m_Scale: {x: 1, y: 1}
        m_Offset: {x: 0, y: 0}
    - _OcclusionMap:
        m_Texture: {fileID: 0}
        m_Scale: {x: 1, y: 1}
        m_Offset: {x: 0, y: 0}
    - _ParallaxMap:
        m_Texture: {fileID: 0}
        m_Scale: {x: 1, y: 1}
        m_Offset: {x: 0, y: 0}
    m_Floats:
    - _AmbientPower: 0
    - _BumpScale: 1
    - _Cutoff: 0.5
    - _DetailNormalMapScale: 1
    - _DirectionPitch: 0
    - _DirectionYaw: 0
    - _DstBlend: 0
    - _EmissiveIntensity: 1
    - _Exponent: 1
    - _GlossMapScale: 1
    - _Glossiness: 1
    - _GlossyReflections: 0
    - _GradientHeight: 10
    - _GradientYStartPos: 0
    - _Intensity: 1
    - _InvFade: 1
    - _LightmapPower: 0.5
    - _Metallic: 0
    - _Mode: 0
    - _NormalIntensity: 1
    - _OcclusionStrength: 1
    - _Parallax: 0.02
    - _ShadowPower: 0.25
    - _Shininess: 0.078125
    - _SmoothnessTextureChannel: 1
    - _SpecularHighlights: 0
    - _SpecularIntensity: 0.2
    - _SrcBlend: 1
    - _UVSec: 0
    - _ZWrite: 1
    m_Colors:
    - _AmbientColor: {r: 0.5, g: 0.5, b: 0.5, a: 0}
    - _BackBottomColor: {r: 0, g: 0.5, b: 0.5, a: 0}
    - _BackTopColor: {r: 0, g: 1, b: 0, a: 0}
    - _BottomColor: {r: 0, g: 0.5, b: 0.5, a: 0}
    - _Color: {r: 0.8352941, g: 0.16862746, b: 0.39607844, a: 1}
    - _Color1: {r: 0, g: 0.7, b: 0.74, a: 0}
    - _Color2: {r: 0.97, g: 0.67, b: 0.51, a: 0}
    - _Direction: {r: 0, g: 1, b: 0, a: 0}
    - _EmissionColor: {r: 1, g: 0.438, b: 0, a: 1}
    - _FrontBottomColor: {r: 0, g: 0.5, b: 0.5, a: 0}
    - _FrontTopColor: {r: 0, g: 1, b: 0, a: 0}
    - _LeftBottomColor: {r: 0, g: 0.5, b: 0.5, a: 0}
    - _LeftTopColor: {r: 0, g: 1, b: 0, a: 0}
    - _LightTint: {r: 1, g: 1, b: 1, a: 0}
    - _LightmapColor: {r: 0, g: 0, b: 0, a: 0}
    - _RightBottomColor: {r: 0, g: 0.5, b: 0.5, a: 0}
    - _RightTopColor: {r: 0, g: 1, b: 0, a: 0}
    - _SpecColor: {r: 1, g: 1, b: 1, a: 1}
    - _TintColor: {r: 0.5, g: 0.5, b: 0.5, a: 0.5}
    - _TopColor: {r: 0, g: 1, b: 0, a: 0}
