%YAML 1.1
%TAG !u! tag:unity3d.com,2011:
--- !u!114 &11400000
MonoBehaviour:
  m_ObjectHideFlags: 0
  m_CorrespondingSourceObject: {fileID: 0}
  m_PrefabInternal: {fileID: 0}
  m_GameObject: {fileID: 0}
  m_Enabled: 1
  m_EditorHideFlags: 0
  m_Script: {fileID: -1223223985, guid: aa81bbec85a3f423193272a7c6154986, type: 3}
  m_Name: K006b_track
  m_EditorClassIdentifier: 
  mEventID: K006b_track
  mEventList:
  - mStartSample: 3504
    mEndSample: 3504
  - mStartSample: 43052
    mEndSample: 43052
  - mStartSample: 78892
    mEndSample: 78892
  - mStartSample: 113708
    mEndSample: 113708
  - mStartSample: 150957
    mEndSample: 150957
  - mStartSample: 185886
    mEndSample: 185886
  - mStartSample: 223783
    mEndSample: 223783
  - mStartSample: 258575
    mEndSample: 258575
  - mStartSample: 295980
    mEndSample: 295980
  - mStartSample: 331141
    mEndSample: 331141
  - mStartSample: 368684
    mEndSample: 368684
  - mStartSample: 402989
    mEndSample: 402989
  - mStartSample: 440868
    mEndSample: 440868
  - mStartSample: 476610
    mEndSample: 476610
  - mStartSample: 514092
    mEndSample: 514092
  - mStartSample: 551470
    mEndSample: 551470
  - mStartSample: 586796
    mEndSample: 586796
  - mStartSample: 593964
    mEndSample: 593964
  - mStartSample: 614444
    mEndSample: 614444
  - mStartSample: 623660
    mEndSample: 623660
  - mStartSample: 659500
    mEndSample: 659500
  - mStartSample: 667692
    mEndSample: 667692
  - mStartSample: 686124
    mEndSample: 686124
  - mStartSample: 695340
    mEndSample: 695340
  - mStartSample: 733228
    mEndSample: 733228
  - mStartSample: 741420
    mEndSample: 741420
  - mStartSample: 761612
    mEndSample: 761612
  - mStartSample: 769406
    mEndSample: 769406
  - mStartSample: 805246
    mEndSample: 805246
  - mStartSample: 814455
    mEndSample: 814455
  - mStartSample: 833920
    mEndSample: 833920
  - mStartSample: 843820
    mEndSample: 843820
  - mStartSample: 877612
    mEndSample: 877612
  - mStartSample: 886126
    mEndSample: 886126
  - mStartSample: 906284
    mEndSample: 906284
  - mStartSample: 914804
    mEndSample: 914804
  - mStartSample: 951340
    mEndSample: 951340
  - mStartSample: 960885
    mEndSample: 960885
  - mStartSample: 980012
    mEndSample: 980012
  - mStartSample: 988554
    mEndSample: 988554
  - mStartSample: 1024044
    mEndSample: 1024044
  - mStartSample: 1031560
    mEndSample: 1031560
  - mStartSample: 1053048
    mEndSample: 1053048
  - mStartSample: 1060230
    mEndSample: 1060230
  - mStartSample: 1096047
    mEndSample: 1096047
  - mStartSample: 1104940
    mEndSample: 1104940
  - mStartSample: 1125749
    mEndSample: 1125749
  - mStartSample: 1134636
    mEndSample: 1134636
  - mStartSample: 1169793
    mEndSample: 1169793
  - mStartSample: 1177987
    mEndSample: 1177987
  - mStartSample: 1198470
    mEndSample: 1198470
  - mStartSample: 1207667
    mEndSample: 1207667
  - mStartSample: 1244204
    mEndSample: 1244204
  - mStartSample: 1251703
    mEndSample: 1251703
  - mStartSample: 1272187
    mEndSample: 1272187
  - mStartSample: 1281406
    mEndSample: 1281406
  - mStartSample: 1316223
    mEndSample: 1316223
  - mStartSample: 1324076
    mEndSample: 1324076
  - mStartSample: 1346604
    mEndSample: 1346604
  - mStartSample: 1353074
    mEndSample: 1353074
  - mStartSample: 1389612
    mEndSample: 1389612
  - mStartSample: 1397122
    mEndSample: 1397122
  - mStartSample: 1418611
    mEndSample: 1418611
  - mStartSample: 1426476
    mEndSample: 1426476
  - mStartSample: 1463663
    mEndSample: 1463663
  - mStartSample: 1470508
    mEndSample: 1470508
  - mStartSample: 1492012
    mEndSample: 1492012
  - mStartSample: 1499518
    mEndSample: 1499518
  - mStartSample: 1534335
    mEndSample: 1534335
  - mStartSample: 1543212
    mEndSample: 1543212
  - mStartSample: 1566764
    mEndSample: 1566764
  - mStartSample: 1574268
    mEndSample: 1574268
  - mStartSample: 1608748
    mEndSample: 1608748
  - mStartSample: 1617285
    mEndSample: 1617285
  - mStartSample: 1637420
    mEndSample: 1637420
  - mStartSample: 1645612
    mEndSample: 1645612
  - mStartSample: 1681452
    mEndSample: 1681452
  - mStartSample: 1688620
    mEndSample: 1688620
  - mStartSample: 1710124
    mEndSample: 1710124
  - mStartSample: 1718316
    mEndSample: 1718316
  - mStartSample: 1753132
    mEndSample: 1753132
  - mStartSample: 1790342
    mEndSample: 1790342
  - mStartSample: 1828382
    mEndSample: 1828382
  - mStartSample: 1864049
    mEndSample: 1864049
  - mStartSample: 1900920
    mEndSample: 1900920
  - mStartSample: 1936758
    mEndSample: 1936758
  - mStartSample: 1973628
    mEndSample: 1973628
  - mStartSample: 2010156
    mEndSample: 2010156
  - mStartSample: 2047020
    mEndSample: 2047020
  - mStartSample: 2083193
    mEndSample: 2083193
  - mStartSample: 2119724
    mEndSample: 2119724
  - mStartSample: 2156909
    mEndSample: 2156909
  - mStartSample: 2192750
    mEndSample: 2192750
  - mStartSample: 2205000
    mEndSample: 2205000
  - mStartSample: 2228268
    mEndSample: 2228268
  - mStartSample: 2264446
    mEndSample: 2264446
  - mStartSample: 2301308
    mEndSample: 2301308
  _SerializedPayloadTypes:
  - SonicBloom.Koreo.TextPayload
  _AssetPayloads: []
  _AssetPayloadIdxs: 
  _ColorPayloads: []
  _ColorPayloadIdxs: 
  _CurvePayloads: []
  _CurvePayloadIdxs: 
  _FloatPayloads: []
  _FloatPayloadIdxs: 
  _GradientPayloads: []
  _GradientPayloadIdxs: 
  _IntPayloads: []
  _IntPayloadIdxs: 
  _SpectrumPayloads: []
  _SpectrumPayloadIdxs: 
  _TextPayloads:
  - mTextVal: 3
  - mTextVal: 3
  - mTextVal: 3
  - mTextVal: 3
  - mTextVal: 3
  - mTextVal: 3
  - mTextVal: 3
  - mTextVal: 3
  - mTextVal: 3
  - mTextVal: 3
  - mTextVal: 1A
  - mTextVal: 1A
  - mTextVal: 1A
  - mTextVal: 1A
  - mTextVal: 2A
  - mTextVal: 2A
  - mTextVal: 2A
  - mTextVal: 2A
  - mTextVal: 1A
  - mTextVal: 1A
  - mTextVal: 1A
  - mTextVal: 1A
  - mTextVal: 2A
  - mTextVal: 2A
  - mTextVal: 2A
  - mTextVal: 2A
  - mTextVal: 1A
  - mTextVal: 1A
  - mTextVal: 1A
  - mTextVal: 1A
  - mTextVal: 2A
  - mTextVal: 2A
  - mTextVal: 2A
  - mTextVal: 2A
  - mTextVal: 1A
  - mTextVal: 1A
  - mTextVal: 1A
  - mTextVal: 1A
  - mTextVal: 2A
  - mTextVal: 2A
  - mTextVal: 2A
  - mTextVal: 2A
  - mTextVal: 1A
  - mTextVal: 1A
  - mTextVal: 1A
  - mTextVal: 1A
  - mTextVal: 2A
  - mTextVal: 2A
  - mTextVal: 2A
  - mTextVal: 2A
  - mTextVal: 1A
  - mTextVal: 1A
  - mTextVal: 1A
  - mTextVal: 1A
  - mTextVal: 2A
  - mTextVal: 2A
  - mTextVal: 2A
  - mTextVal: 2A
  - mTextVal: 1A
  - mTextVal: 1A
  - mTextVal: 1A
  - mTextVal: 1A
  - mTextVal: 2A
  - mTextVal: 2A
  - mTextVal: 2A
  - mTextVal: 2A
  - mTextVal: 1A
  - mTextVal: 1A
  - mTextVal: 1A
  - mTextVal: 1A
  - mTextVal: 2A
  - mTextVal: 2A
  - mTextVal: 2A
  - mTextVal: 2A
  - mTextVal: 3
  - mTextVal: 3
  - mTextVal: 3
  - mTextVal: 3
  - mTextVal: 3
  - mTextVal: 3
  - mTextVal: 3
  - mTextVal: 3
  - mTextVal: 3
  - mTextVal: 3
  _TextPayloadIdxs: 000000000100000002000000030000000600000007000000080000000b0000000c0000000d000000100000001100000012000000130000001400000015000000160000001700000018000000190000001a0000001b0000001c0000001d0000001e0000001f000000200000002100000022000000230000002400000025000000260000002700000028000000290000002a0000002b0000002c0000002d0000002e0000002f000000300000003100000032000000330000003400000035000000360000003700000038000000390000003a0000003b0000003c0000003d0000003e0000003f000000400000004100000042000000430000004400000045000000460000004700000048000000490000004a0000004b0000004c0000004d0000004e0000004f0000005000000051000000520000005600000057000000580000005c0000005e0000005f00000060000000
